# This file uses centimeters as units for non-parametric coordinates.

mtllib ShelfTier4.mtl
g default
v 1.357169 1.379194 -0.440976
v 1.154474 1.379194 -0.838773
v 0.838774 1.379194 -1.154473
v 0.440976 1.379194 -1.357169
v 0.000000 1.379194 -1.427015
v -0.440976 1.379194 -1.357169
v -0.838773 1.379194 -1.154473
v -1.154473 1.379194 -0.838773
v -1.357169 1.379194 -0.440976
v -1.427015 1.379194 0.000000
v -1.357169 1.379194 0.440977
v -1.154473 1.379194 0.838773
v -0.838773 1.379194 1.154473
v -0.440976 1.379194 1.357169
v 0.000000 1.379194 1.427015
v 0.440976 1.379194 1.357169
v 0.838770 1.379194 1.154473
v 1.154470 1.379194 0.838773
v 1.357165 1.379194 0.440977
v 1.427011 1.379194 0.000000
v 1.384826 1.398400 -0.449955
v 1.178010 1.398400 -0.855872
v 0.855872 1.398400 -1.178010
v 0.449955 1.398400 -1.384826
v 0.000000 1.398400 -1.456091
v -0.449955 1.398400 -1.384826
v -0.855873 1.398400 -1.178010
v -1.178010 1.398400 -0.855872
v -1.384826 1.398400 -0.449955
v -1.456091 1.398400 0.000000
v -1.384826 1.398400 0.449955
v -1.178010 1.398400 0.855872
v -0.855872 1.398400 1.178010
v -0.449955 1.398400 1.384826
v 0.000000 1.398400 1.456091
v 0.449955 1.398400 1.384826
v 0.855872 1.398400 1.178010
v 1.178010 1.398400 0.855872
v 1.384826 1.398400 0.449955
v 1.456091 1.398400 0.000000
v 1.384828 1.895411 -0.449956
v 1.178009 1.895411 -0.855873
v 0.855873 1.895411 -1.178008
v 0.449956 1.895411 -1.384828
v 0.000000 1.895411 -1.456090
v -0.449956 1.895411 -1.384828
v -0.855873 1.895411 -1.178008
v -1.178009 1.895411 -0.855873
v -1.384828 1.895411 -0.449955
v -1.456090 1.895411 0.000000
v -1.384828 1.895411 0.449956
v -1.178009 1.895411 0.855873
v -0.855873 1.895411 1.178009
v -0.449955 1.895411 1.384827
v 0.000000 1.895411 1.456090
v 0.449955 1.895411 1.384827
v 0.855873 1.895411 1.178009
v 1.178009 1.895411 0.855873
v 1.384827 1.895411 0.449956
v 1.456090 1.895411 0.000000
v 1.357171 1.914671 -0.440974
v 1.154476 1.914671 -0.838773
v 0.838774 1.914671 -1.154475
v 0.440974 1.914671 -1.357170
v 0.000000 1.914671 -1.427015
v -0.440974 1.914671 -1.357170
v -0.838773 1.914671 -1.154475
v -1.154475 1.914671 -0.838773
v -1.357170 1.914671 -0.440974
v -1.427014 1.914671 0.000000
v -1.357170 1.914671 0.440974
v -1.154475 1.914671 0.838773
v -0.838773 1.914671 1.154475
v -0.440974 1.914671 1.357170
v 0.000000 1.914671 1.427014
v 0.440974 1.914671 1.357170
v 0.838773 1.914671 1.154475
v 1.154475 1.914671 0.838773
v 1.357170 1.914671 0.440974
v 1.427014 1.914671 0.000000
v -1.634625 -0.760386 0.427236
v 1.613849 -0.760386 0.427236
v -1.634625 -0.760386 1.670345
v 1.613849 -0.760386 1.670345
v -1.634625 0.356633 1.670345
v 1.613849 0.356633 1.670345
v -1.634625 0.356633 0.427236
v 1.613849 0.356633 0.427236
v 1.052159 -2.569718 0.419888
v 1.925352 -2.569718 0.419888
v 1.052161 0.375868 0.419888
v 1.925353 0.375868 0.419888
v 1.052159 0.375868 -0.419888
v 1.925352 0.375868 -0.419888
v 1.052159 -2.569718 -0.419888
v 1.925352 -2.569718 -0.419888
v -1.948318 -2.628422 1.948314
v 1.948310 -2.628422 1.948314
v -1.948317 -2.206861 1.948314
v 1.948311 -2.206861 1.948314
v -1.948318 -2.206861 -1.948314
v 1.948310 -2.206861 -1.948314
v -1.948318 -2.628422 -1.948314
v 1.948310 -2.628422 -1.948314
v -1.948313 0.375998 1.948314
v 1.948315 0.375998 1.948314
v -1.948313 1.245400 1.948314
v 1.948316 1.245400 1.948314
v -1.948313 1.245400 -1.948314
v 1.948316 1.245400 -1.948314
v -1.948313 0.375998 -1.948314
v 1.948315 0.375998 -1.948314
v -1.181730 1.543542 0.430478
v -0.284943 1.384734 0.234795
v -1.151158 1.612093 0.514948
v -0.254371 1.453286 0.319265
v -1.151158 2.446056 -0.161857
v -0.254371 2.287248 -0.357540
v -1.181730 2.377504 -0.246327
v -0.284943 2.218696 -0.442010
v 1.115128 1.543542 0.430478
v 0.218341 1.384734 0.234795
v 0.187770 1.453286 0.319265
v 1.084557 1.612093 0.514948
v 0.187769 2.287248 -0.357540
v 1.084556 2.446056 -0.161857
v 0.218343 2.218696 -0.442010
v 1.115130 2.377504 -0.246327
v -0.197093 1.335395 0.173999
v 0.104095 1.335395 0.173999
v -0.197095 1.376795 0.225013
v 0.104092 1.376795 0.225013
v -0.197095 2.210757 -0.451793
v 0.104092 2.210757 -0.451793
v -0.197095 2.169357 -0.502806
v 0.104092 2.169357 -0.502806
v -1.094234 2.393311 -0.137516
v -0.253558 2.243461 -0.322161
v -1.094234 1.631925 0.480389
v -0.253558 1.482076 0.295744
v -1.067130 1.658254 0.512831
v -0.205591 1.584658 0.422146
v -1.067130 2.419639 -0.105074
v -0.205591 2.346044 -0.195759
v 1.026175 2.391786 -0.139395
v 0.187298 2.242649 -0.323161
v 0.187298 1.481264 0.294744
v 1.026175 1.630401 0.478510
v 0.131828 1.583847 0.421147
v 0.960348 1.656729 0.510952
v 0.131828 2.345232 -0.196759
v 0.960348 2.418114 -0.106953
v -0.096638 2.261509 -0.299922
v -0.196388 2.166754 -0.416681
v -0.196388 1.405368 0.201224
v -0.096638 1.500124 0.317983
v 0.024867 1.499160 0.316795
v 0.024867 2.260545 -0.301111
v 0.101968 2.165979 -0.417635
v 0.101968 1.404594 0.200270
v -0.034761 1.446229 0.251573
v -0.034761 2.207614 -0.366332
v -0.034602 2.165282 -0.418494
v -0.034602 1.403897 0.199412
v -1.949396 -0.971233 1.948314
v 1.947233 -0.971233 1.948314
v -1.949394 -0.772267 1.948314
v 1.947234 -0.772267 1.948314
v -1.949396 -0.772267 -1.948314
v 1.947233 -0.772267 -1.948314
v -1.949396 -0.971233 -1.948314
v 1.947233 -0.971233 -1.948314
v -1.926797 -2.569718 0.419888
v -1.053605 -2.569718 0.419888
v -1.926796 0.375868 0.419888
v -1.053603 0.375868 0.419888
v -1.926797 0.375868 -0.419888
v -1.053605 0.375868 -0.419888
v -1.926797 -2.569718 -0.419888
v -1.053605 -2.569718 -0.419888
v 1.600880 -2.184618 0.427236
v -1.647595 -2.184618 0.427236
v -1.647595 -2.184618 1.670345
v 1.600880 -2.184618 1.670345
v -1.647595 -1.067599 1.670345
v 1.600880 -1.067599 1.670345
v -1.647595 -1.067599 0.427236
v 1.600880 -1.067599 0.427236
v 1.600880 -0.773310 -0.412896
v 1.600880 -0.773310 -1.656006
v -1.647595 -0.773310 -1.656006
v -1.647595 -0.773310 -0.412896
v 1.600880 0.343710 -1.656006
v -1.647595 0.343710 -1.656006
v 1.600880 0.343710 -0.412896
v -1.647595 0.343710 -0.412896
v -1.636324 -2.203355 -0.412896
v 1.612151 -2.203355 -0.412896
v 1.612151 -2.203355 -1.656006
v -1.636324 -2.203355 -1.656006
v 1.612151 -1.086335 -1.656006
v -1.636324 -1.086335 -1.656006
v 1.612151 -1.086335 -0.412896
v -1.636324 -1.086335 -0.412896
vt 0.131104 0.248965
vt 0.123189 0.264497
vt 0.127657 0.267743
vt 0.136354 0.250671
vt 0.110863 0.276824
vt 0.114108 0.281291
vt 0.095331 0.284738
vt 0.097036 0.289989
vt 0.078113 0.287465
vt 0.078113 0.292986
vt 0.060894 0.284738
vt 0.059189 0.289989
vt 0.045362 0.276824
vt 0.042117 0.281291
vt 0.033035 0.264497
vt 0.028568 0.267743
vt 0.025121 0.248965
vt 0.019871 0.250671
vt 0.022394 0.231747
vt 0.016873 0.231747
vt 0.025121 0.214529
vt 0.019871 0.212823
vt 0.033035 0.198997
vt 0.028569 0.195751
vt 0.045362 0.186670
vt 0.042117 0.182203
vt 0.060894 0.178756
vt 0.059189 0.173505
vt 0.078113 0.176029
vt 0.078113 0.170508
vt 0.095331 0.178756
vt 0.097036 0.173505
vt 0.110862 0.186670
vt 0.114108 0.182203
vt 0.123189 0.198997
vt 0.127656 0.195751
vt 0.131104 0.214529
vt 0.136354 0.212823
vt 0.133831 0.231747
vt 0.139352 0.231747
vt 0.922206 0.768974
vt 0.997947 0.768974
vt 0.997947 0.879448
vt 0.922206 0.879448
vt 0.925481 0.395492
vt 0.839153 0.395492
vt 0.839153 0.505966
vt 0.925481 0.505966
vt 0.757336 0.395492
vt 0.757336 0.505966
vt 0.681595 0.395492
vt 0.681595 0.505966
vt 0.597634 0.395492
vt 0.597634 0.505966
vt 0.511306 0.395492
vt 0.511306 0.505966
vt 0.426122 0.395492
vt 0.426122 0.505966
vt 0.427388 0.883666
vt 0.510636 0.883666
vt 0.510636 0.994139
vt 0.427388 0.994139
vt 0.596964 0.883666
vt 0.596964 0.994139
vt 0.680925 0.883666
vt 0.680925 0.994139
vt 0.756666 0.883666
vt 0.756666 0.994139
vt 0.756666 0.883666
vt 0.838483 0.883666
vt 0.838483 0.994139
vt 0.756666 0.994139
vt 0.924811 0.883666
vt 0.924811 0.994139
vt 0.996976 0.883666
vt 0.996976 0.994139
vt 0.426587 0.769140
vt 0.514263 0.769140
vt 0.514263 0.879613
vt 0.426587 0.879613
vt 0.598224 0.769140
vt 0.598224 0.879613
vt 0.674412 0.769140
vt 0.674412 0.879613
vt 0.674412 0.768974
vt 0.751917 0.768974
vt 0.751917 0.879448
vt 0.674412 0.879448
vt 0.838245 0.768974
vt 0.838245 0.879448
vt 0.136354 0.250671
vt 0.127656 0.267743
vt 0.123189 0.264497
vt 0.131104 0.248965
vt 0.114108 0.281291
vt 0.110863 0.276824
vt 0.097037 0.289989
vt 0.095331 0.284738
vt 0.078113 0.292986
vt 0.078113 0.287465
vt 0.059188 0.289989
vt 0.060894 0.284738
vt 0.042117 0.281291
vt 0.045362 0.276824
vt 0.028568 0.267743
vt 0.033036 0.264497
vt 0.019870 0.250671
vt 0.025121 0.248965
vt 0.016873 0.231747
vt 0.022394 0.231747
vt 0.019870 0.212823
vt 0.025121 0.214529
vt 0.028568 0.195751
vt 0.033036 0.198997
vt 0.042117 0.182203
vt 0.045362 0.186670
vt 0.059188 0.173505
vt 0.060894 0.178756
vt 0.078113 0.170508
vt 0.078113 0.176029
vt 0.097037 0.173505
vt 0.095331 0.178756
vt 0.114108 0.182203
vt 0.110862 0.186670
vt 0.127656 0.195751
vt 0.123189 0.198997
vt 0.136354 0.212823
vt 0.131104 0.214529
vt 0.139352 0.231747
vt 0.133831 0.231747
vt 0.511306 0.395492
vt 0.597634 0.395492
vt 0.597634 0.505966
vt 0.511306 0.505966
vt 0.426122 0.395492
vt 0.426122 0.505966
vt 0.510636 0.883666
vt 0.427388 0.883666
vt 0.427388 0.994139
vt 0.510636 0.994139
vt 0.596964 0.883666
vt 0.596964 0.994139
vt 0.680925 0.883666
vt 0.680925 0.994139
vt 0.756666 0.883666
vt 0.756666 0.994139
vt 0.924811 0.883666
vt 0.838483 0.883666
vt 0.838483 0.994139
vt 0.924811 0.994139
vt 0.756666 0.883666
vt 0.756666 0.994139
vt 0.674412 0.769140
vt 0.598224 0.769140
vt 0.598224 0.879613
vt 0.674412 0.879613
vt 0.514263 0.769140
vt 0.514263 0.879613
vt 0.426587 0.769140
vt 0.426587 0.879613
vt 0.996976 0.883666
vt 0.996976 0.994139
vt 0.997947 0.768974
vt 0.922206 0.768974
vt 0.922206 0.879448
vt 0.997947 0.879448
vt 0.838245 0.768974
vt 0.838245 0.879448
vt 0.751917 0.768974
vt 0.751917 0.879448
vt 0.674412 0.768974
vt 0.674412 0.879448
vt 0.681595 0.395492
vt 0.681595 0.505966
vt 0.757336 0.395492
vt 0.757336 0.505966
vt 0.839153 0.395492
vt 0.839153 0.505966
vt 0.925481 0.395492
vt 0.925481 0.505966
vt 0.164343 0.350704
vt 0.418859 0.350704
vt 0.418859 0.513355
vt 0.164343 0.513355
vt 0.418859 0.675358
vt 0.164343 0.675358
vt 0.164343 0.675358
vt 0.418859 0.675358
vt 0.418859 0.837586
vt 0.164343 0.837586
vt 0.164343 0.997867
vt 0.418859 0.997867
vt 0.418859 0.837586
vt 0.164343 0.837586
vt 0.581453 0.513355
vt 0.581453 0.675358
vt 0.002339 0.675358
vt 0.002339 0.513355
vt 0.154564 0.029123
vt 0.225163 0.029123
vt 0.225163 0.278213
vt 0.154564 0.278213
vt 0.052362 0.083110
vt 0.129125 0.083110
vt 0.129125 0.151660
vt 0.052362 0.151660
vt 0.154564 0.278212
vt 0.225163 0.278212
vt 0.225163 0.029123
vt 0.154564 0.029123
vt 0.052362 0.151660
vt 0.129125 0.151660
vt 0.129125 0.083110
vt 0.052362 0.083110
vt 0.154564 0.029123
vt 0.225163 0.029123
vt 0.225163 0.278212
vt 0.154564 0.278212
vt 0.225163 0.029123
vt 0.154564 0.029123
vt 0.154564 0.278212
vt 0.225163 0.278212
vt 0.026072 0.024159
vt 0.353656 0.024159
vt 0.353656 0.059808
vt 0.026072 0.059808
vt 0.366221 0.018399
vt 0.693805 0.018399
vt 0.693805 0.345983
vt 0.366221 0.345983
vt 0.026072 0.059808
vt 0.353656 0.059808
vt 0.353656 0.024159
vt 0.026072 0.024159
vt 0.366221 0.345983
vt 0.693805 0.345983
vt 0.693805 0.018399
vt 0.366221 0.018399
vt 0.026072 0.024159
vt 0.353656 0.024159
vt 0.353656 0.059807
vt 0.026072 0.059807
vt 0.353656 0.024159
vt 0.026072 0.024159
vt 0.026072 0.059807
vt 0.353656 0.059807
vt 0.701402 0.016138
vt 0.973986 0.016138
vt 0.973986 0.076924
vt 0.701402 0.076924
vt 0.973986 0.349508
vt 0.701402 0.349508
vt 0.701402 0.076924
vt 0.973986 0.076924
vt 0.973986 0.016139
vt 0.701402 0.016139
vt 0.366221 0.345983
vt 0.693805 0.345983
vt 0.693805 0.018399
vt 0.366221 0.018399
vt 0.701402 0.016138
vt 0.973985 0.016138
vt 0.973985 0.076924
vt 0.701402 0.076924
vt 0.973985 0.016138
vt 0.701402 0.016138
vt 0.701402 0.076924
vt 0.973985 0.076924
vt 0.079754 0.355831
vt 0.069508 0.394282
vt 0.077187 0.393988
vt 0.087434 0.355538
vt 0.054805 0.360779
vt 0.114449 0.341425
vt 0.114449 0.443060
vt 0.054805 0.462413
vt 0.087647 0.355495
vt 0.077400 0.393946
vt 0.069721 0.394239
vt 0.079967 0.355788
vt 0.156180 0.762813
vt 0.156273 0.852603
vt 0.003268 0.852761
vt 0.003175 0.762971
vt 0.111169 0.422132
vt 0.065961 0.375145
vt 0.060319 0.379007
vt 0.105526 0.425994
vt 0.097663 0.445491
vt 0.104866 0.442812
vt 0.080635 0.411248
vt 0.073431 0.413928
vt 0.114992 0.360779
vt 0.114992 0.462413
vt 0.055349 0.443060
vt 0.055349 0.341425
vt 0.105079 0.442769
vt 0.097876 0.445449
vt 0.073644 0.413885
vt 0.080848 0.411205
vt 0.156417 0.999150
vt 0.003412 0.999308
vt 0.003320 0.903152
vt 0.156325 0.902994
vt 0.111169 0.422132
vt 0.105526 0.425994
vt 0.060319 0.379007
vt 0.065961 0.375145
vt 0.064837 0.398780
vt 0.067185 0.410538
vt 0.071679 0.409640
vt 0.069330 0.397883
vt 0.029752 0.332103
vt 0.049783 0.332103
vt 0.049783 0.433738
vt 0.029752 0.433738
vt 0.069544 0.397840
vt 0.071892 0.409597
vt 0.067398 0.410495
vt 0.065049 0.398738
vt 0.156283 0.862581
vt 0.156314 0.892737
vt 0.003309 0.892895
vt 0.003278 0.862738
vt 0.797456 0.698830
vt 0.877343 0.672737
vt 0.877343 0.540158
vt 0.797456 0.566251
vt 0.583560 0.555624
vt 0.664569 0.529230
vt 0.670435 0.557818
vt 0.586327 0.560559
vt 0.670799 0.691072
vt 0.586360 0.700323
vt 0.586327 0.560559
vt 0.670435 0.557818
vt 0.664569 0.529230
vt 0.583560 0.555624
vt 0.789305 0.700043
vt 0.795888 0.696285
vt 0.795888 0.555343
vt 0.789305 0.560278
vt 0.998953 0.698564
vt 0.998953 0.565986
vt 0.919237 0.540017
vt 0.919237 0.672596
vt 0.795888 0.555343
vt 0.789305 0.560279
vt 0.715313 0.557585
vt 0.716793 0.528997
vt 0.789305 0.700043
vt 0.714603 0.688494
vt 0.789305 0.560279
vt 0.795888 0.555343
vt 0.716793 0.528997
vt 0.715313 0.557585
vt 0.789305 0.700043
vt 0.789305 0.560278
vt 0.795888 0.555343
vt 0.795888 0.696285
vt 0.683601 0.531403
vt 0.683530 0.677688
vt 0.882777 0.659379
vt 0.882777 0.526801
vt 0.673576 0.513802
vt 0.683601 0.531403
vt 0.673576 0.513802
vt 0.689775 0.521605
vt 0.689892 0.513802
vt 0.898150 0.659123
vt 0.898150 0.526545
vt 0.689892 0.513802
vt 0.689775 0.521605
vt 0.689725 0.667800
vt 0.695695 0.677511
vt 0.695826 0.531226
vt 0.703666 0.513802
vt 0.695826 0.531226
vt 0.911129 0.526666
vt 0.911129 0.659245
vt 0.703666 0.513802
vt 0.026072 0.024159
vt 0.353656 0.024159
vt 0.353656 0.059808
vt 0.026072 0.059808
vt 0.366221 0.018399
vt 0.693805 0.018399
vt 0.693805 0.345983
vt 0.366221 0.345983
vt 0.026072 0.059808
vt 0.353656 0.059808
vt 0.353656 0.024159
vt 0.026072 0.024159
vt 0.366221 0.345983
vt 0.693805 0.345983
vt 0.693805 0.018399
vt 0.366221 0.018399
vt 0.026072 0.024159
vt 0.353656 0.024159
vt 0.353656 0.059807
vt 0.026072 0.059807
vt 0.353656 0.024159
vt 0.026072 0.024159
vt 0.026072 0.059807
vt 0.353656 0.059807
vt 0.154564 0.029123
vt 0.225163 0.029123
vt 0.225163 0.278213
vt 0.154564 0.278213
vt 0.052362 0.083110
vt 0.129125 0.083110
vt 0.129125 0.151660
vt 0.052362 0.151660
vt 0.154564 0.278212
vt 0.225163 0.278212
vt 0.225163 0.029123
vt 0.154564 0.029123
vt 0.052362 0.151660
vt 0.129125 0.151660
vt 0.129125 0.083110
vt 0.052362 0.083110
vt 0.154564 0.029123
vt 0.225163 0.029123
vt 0.225163 0.278212
vt 0.154564 0.278212
vt 0.225163 0.029123
vt 0.154564 0.029123
vt 0.154564 0.278212
vt 0.225163 0.278212
vt 0.164343 0.350704
vt 0.164343 0.513355
vt 0.418859 0.513355
vt 0.418859 0.350704
vt 0.164343 0.675358
vt 0.418859 0.675358
vt 0.164343 0.675358
vt 0.164343 0.837586
vt 0.418859 0.837586
vt 0.418859 0.675358
vt 0.164343 0.997867
vt 0.164343 0.837586
vt 0.418859 0.837586
vt 0.418859 0.997867
vt 0.581453 0.513355
vt 0.581453 0.675358
vt 0.002339 0.675358
vt 0.002339 0.513355
vt 0.164343 0.350704
vt 0.418859 0.350704
vt 0.418859 0.513355
vt 0.164343 0.513355
vt 0.418859 0.675358
vt 0.164343 0.675358
vt 0.164343 0.675358
vt 0.418859 0.675358
vt 0.418859 0.837586
vt 0.164343 0.837586
vt 0.164343 0.997867
vt 0.418859 0.997867
vt 0.418859 0.837586
vt 0.164343 0.837586
vt 0.581453 0.513355
vt 0.581453 0.675358
vt 0.002339 0.675358
vt 0.002339 0.513355
vt 0.164343 0.350704
vt 0.164343 0.513355
vt 0.418859 0.513355
vt 0.418859 0.350704
vt 0.164343 0.675358
vt 0.418859 0.675358
vt 0.164343 0.675358
vt 0.164343 0.837586
vt 0.418859 0.837586
vt 0.418859 0.675358
vt 0.164343 0.997867
vt 0.164343 0.837586
vt 0.418859 0.837586
vt 0.418859 0.997867
vt 0.581453 0.513355
vt 0.581453 0.675358
vt 0.002339 0.675358
vt 0.002339 0.513355
vn 0.524115 -0.834446 -0.170305
vn 0.445772 -0.834502 -0.323874
vn 0.445774 -0.834502 -0.323871
vn 0.524122 -0.834446 -0.170283
vn 0.323875 -0.834502 -0.445771
vn 0.323871 -0.834502 -0.445774
vn 0.170310 -0.834440 -0.524124
vn 0.170287 -0.834440 -0.524131
vn 0.000000 -0.834410 -0.551145
vn 0.000000 -0.834410 -0.551145
vn -0.170308 -0.834441 -0.524122
vn -0.170286 -0.834441 -0.524129
vn -0.323871 -0.834504 -0.445769
vn -0.323870 -0.834504 -0.445770
vn -0.445771 -0.834503 -0.323873
vn -0.445772 -0.834503 -0.323871
vn -0.524125 -0.834439 -0.170310
vn -0.524132 -0.834439 -0.170287
vn -0.551147 -0.834408 0.000000
vn -0.551147 -0.834408 0.000000
vn -0.524127 -0.834437 0.170311
vn -0.524135 -0.834437 0.170287
vn -0.445775 -0.834499 0.323876
vn -0.445776 -0.834499 0.323874
vn -0.323876 -0.834499 0.445776
vn -0.323874 -0.834499 0.445777
vn -0.170310 -0.834437 0.524127
vn -0.170288 -0.834437 0.524134
vn 0.000000 -0.834410 0.551145
vn 0.000000 -0.834410 0.551145
vn 0.170310 -0.834441 0.524121
vn 0.170286 -0.834441 0.524129
vn 0.323862 -0.834513 0.445760
vn 0.323866 -0.834513 0.445757
vn 0.445744 -0.834523 0.323858
vn 0.445749 -0.834523 0.323850
vn 0.524088 -0.834464 0.170300
vn 0.524096 -0.834464 0.170274
vn 0.551116 -0.834428 0.000001
vn 0.551116 -0.834428 0.000001
vn 0.951060 -0.000001 -0.309008
vn 0.809021 0.000000 -0.587779
vn 0.809021 0.000000 -0.587780
vn 0.951060 -0.000001 -0.309008
vn 0.587779 0.000000 -0.809022
vn 0.587780 0.000000 -0.809021
vn 0.309008 -0.000001 -0.951059
vn 0.309008 -0.000001 -0.951059
vn 0.000000 -0.000001 -1.000000
vn 0.000000 -0.000001 -1.000000
vn -0.309008 -0.000001 -0.951059
vn -0.309008 -0.000001 -0.951059
vn -0.587779 0.000000 -0.809021
vn -0.587780 0.000000 -0.809021
vn -0.809022 0.000000 -0.587779
vn -0.809021 0.000000 -0.587779
vn -0.951059 -0.000001 -0.309008
vn -0.951059 -0.000001 -0.309009
vn -1.000000 -0.000001 0.000000
vn -1.000000 -0.000001 0.000000
vn -0.951059 -0.000001 0.309009
vn -0.951059 -0.000001 0.309009
vn -0.809021 -0.000000 0.587779
vn -0.809021 -0.000000 0.587780
vn -0.587779 -0.000000 0.809021
vn -0.587780 -0.000000 0.809021
vn -0.309009 -0.000001 0.951059
vn -0.309009 -0.000001 0.951059
vn 0.000000 -0.000001 1.000000
vn 0.000000 -0.000001 1.000000
vn 0.309009 -0.000001 0.951059
vn 0.309009 -0.000001 0.951059
vn 0.587779 0.000000 0.809022
vn 0.587779 0.000000 0.809021
vn 0.809022 0.000000 0.587779
vn 0.809021 0.000000 0.587780
vn 0.951059 -0.000001 0.309008
vn 0.951059 -0.000001 0.309008
vn 1.000000 -0.000001 0.000001
vn 1.000000 -0.000001 0.000001
vn 0.525137 0.833739 -0.170618
vn 0.446639 0.833792 -0.324507
vn 0.446642 0.833792 -0.324504
vn 0.525133 0.833739 -0.170632
vn 0.324505 0.833792 -0.446641
vn 0.324502 0.833792 -0.446643
vn 0.170617 0.833740 -0.525135
vn 0.170632 0.833740 -0.525131
vn -0.000000 0.833714 -0.552197
vn 0.000000 0.833714 -0.552197
vn -0.170617 0.833740 -0.525135
vn -0.170631 0.833740 -0.525131
vn -0.324504 0.833794 -0.446637
vn -0.324501 0.833794 -0.446640
vn -0.446638 0.833793 -0.324505
vn -0.446641 0.833793 -0.324501
vn -0.525135 0.833740 -0.170617
vn -0.525130 0.833740 -0.170632
vn -0.552197 0.833714 -0.000000
vn -0.552197 0.833714 -0.000000
vn -0.525136 0.833740 0.170617
vn -0.525131 0.833740 0.170632
vn -0.446639 0.833792 0.324506
vn -0.446642 0.833792 0.324502
vn -0.324507 0.833792 0.446639
vn -0.324503 0.833792 0.446642
vn -0.170618 0.833738 0.525138
vn -0.170633 0.833738 0.525134
vn 0.000000 0.833712 0.552200
vn 0.000000 0.833712 0.552200
vn 0.170618 0.833739 0.525138
vn 0.170633 0.833739 0.525133
vn 0.324506 0.833792 0.446640
vn 0.324502 0.833792 0.446643
vn 0.446638 0.833793 0.324505
vn 0.446641 0.833793 0.324501
vn 0.525137 0.833739 0.170618
vn 0.525132 0.833739 0.170633
vn 0.552201 0.833711 0.000001
vn 0.552201 0.833711 0.000001
vn 0.454003 0.000002 0.891000
vn 0.454003 0.000002 0.891000
vn 0.454003 0.000002 0.891000
vn 0.454003 0.000002 0.891000
vn 0.707107 0.000003 0.707107
vn 0.707107 0.000003 0.707107
vn 0.707107 0.000003 0.707107
vn 0.707107 0.000003 0.707107
vn 0.891000 0.000002 0.454003
vn 0.891000 0.000002 0.454003
vn 0.891000 0.000002 0.454003
vn 0.891000 0.000002 0.454003
vn 0.987688 0.000000 0.156438
vn 0.987688 0.000000 0.156438
vn 0.987688 0.000000 0.156438
vn 0.987688 0.000000 0.156438
vn 0.987688 0.000001 -0.156438
vn 0.987688 0.000001 -0.156438
vn 0.987688 0.000001 -0.156438
vn 0.987688 0.000001 -0.156438
vn 0.891000 0.000002 -0.454003
vn 0.891000 0.000002 -0.454003
vn 0.891000 0.000002 -0.454003
vn 0.891000 0.000002 -0.454003
vn 0.454003 0.000002 -0.891000
vn 0.587792 0.000003 -0.809012
vn 0.587792 0.000003 -0.809012
vn 0.454003 0.000002 -0.891000
vn 0.707107 0.000003 -0.707107
vn 0.707107 0.000003 -0.707107
vn -0.707107 0.000007 -0.707106
vn -0.587793 0.000005 -0.809012
vn -0.587793 0.000005 -0.809011
vn -0.707107 0.000007 -0.707106
vn -0.309024 0.000002 -0.951054
vn -0.309023 0.000002 -0.951054
vn -0.000000 0.000001 -1.000000
vn -0.000000 0.000001 -1.000000
vn 0.156437 0.000001 -0.987688
vn 0.156437 0.000001 -0.987688
vn -0.891000 0.000003 0.454003
vn -0.951055 0.000003 0.309022
vn -0.951055 0.000003 0.309021
vn -0.891000 0.000003 0.454003
vn -1.000000 0.000006 -0.000002
vn -1.000000 0.000006 -0.000002
vn -0.951054 0.000007 -0.309024
vn -0.951055 0.000007 -0.309023
vn -0.891000 0.000007 -0.454003
vn -0.891000 0.000007 -0.454003
vn 0.156438 0.000001 0.987688
vn -0.000000 0.000001 1.000000
vn -0.000000 0.000001 1.000000
vn 0.156438 0.000001 0.987688
vn -0.309024 0.000002 0.951054
vn -0.309023 0.000002 0.951055
vn -0.587792 0.000003 0.809012
vn -0.587792 0.000003 0.809012
vn -0.707107 0.000003 0.707106
vn -0.707107 0.000003 0.707106
vn 0.000000 -1.000000 0.000000
vn 0.000000 -1.000000 0.000000
vn 0.000000 -1.000000 0.000000
vn 0.000000 -1.000000 0.000000
vn 0.000000 0.000000 1.000000
vn 0.000000 0.000000 1.000000
vn 0.000000 0.000000 1.000000
vn 0.000000 0.000000 1.000000
vn 0.000000 1.000000 0.000000
vn 0.000000 1.000000 0.000000
vn 0.000000 1.000000 0.000000
vn 0.000000 1.000000 0.000000
vn 0.000000 0.000000 -1.000000
vn 0.000000 0.000000 -1.000000
vn 0.000000 0.000000 -1.000000
vn 0.000000 0.000000 -1.000000
vn 1.000000 0.000000 0.000000
vn 1.000000 0.000000 0.000000
vn 1.000000 0.000000 0.000000
vn 1.000000 0.000000 0.000000
vn -1.000000 0.000000 0.000000
vn -1.000000 0.000000 0.000000
vn -1.000000 0.000000 0.000000
vn -1.000000 0.000000 0.000000
vn 0.000000 0.000000 1.000000
vn 0.000000 0.000000 1.000000
vn 0.000000 0.000000 1.000000
vn 0.000000 0.000000 1.000000
vn 0.000000 1.000000 -0.000000
vn 0.000000 1.000000 -0.000000
vn 0.000000 1.000000 -0.000000
vn 0.000000 1.000000 -0.000000
vn 0.000000 0.000000 -1.000000
vn 0.000000 0.000000 -1.000000
vn 0.000000 0.000000 -1.000000
vn 0.000000 0.000000 -1.000000
vn 0.000000 -1.000000 0.000000
vn 0.000000 -1.000000 0.000000
vn 0.000000 -1.000000 0.000000
vn 0.000000 -1.000000 0.000000
vn 1.000000 -0.000000 -0.000001
vn 1.000000 -0.000000 -0.000001
vn 1.000000 -0.000000 -0.000001
vn 1.000000 -0.000000 -0.000001
vn -1.000000 0.000000 0.000001
vn -1.000000 0.000000 0.000001
vn -1.000000 0.000000 0.000001
vn -1.000000 0.000000 0.000001
vn 0.000000 0.000000 1.000000
vn 0.000000 0.000000 1.000000
vn 0.000000 0.000000 1.000000
vn 0.000000 0.000000 1.000000
vn 0.000000 1.000000 0.000000
vn 0.000000 1.000000 0.000000
vn 0.000000 1.000000 0.000000
vn 0.000000 1.000000 0.000000
vn 0.000000 0.000000 -1.000000
vn 0.000000 0.000000 -1.000000
vn 0.000000 0.000000 -1.000000
vn 0.000000 0.000000 -1.000000
vn 0.000000 -1.000000 0.000000
vn 0.000000 -1.000000 0.000000
vn 0.000000 -1.000000 0.000000
vn 0.000000 -1.000000 0.000000
vn 1.000000 -0.000002 -0.000000
vn 1.000000 -0.000002 -0.000000
vn 1.000000 -0.000002 -0.000000
vn 1.000000 -0.000002 -0.000000
vn -1.000000 0.000002 0.000000
vn -1.000000 0.000002 0.000000
vn -1.000000 0.000002 0.000000
vn -1.000000 0.000002 0.000000
vn 0.000000 0.000000 1.000000
vn 0.000000 0.000000 1.000000
vn 0.000000 0.000000 1.000000
vn 0.000000 0.000000 1.000000
vn 0.000000 1.000000 0.000000
vn 0.000000 1.000000 0.000000
vn 0.000000 1.000000 0.000000
vn 0.000000 1.000000 0.000000
vn 0.000000 0.000000 -1.000000
vn 0.000000 0.000000 -1.000000
vn 0.000000 0.000000 -1.000000
vn 0.000000 0.000000 -1.000000
vn 0.000000 -1.000000 0.000000
vn 0.000000 -1.000000 0.000000
vn 0.000000 -1.000000 0.000000
vn 0.000000 -1.000000 0.000000
vn 1.000000 -0.000000 0.000000
vn 1.000000 -0.000000 0.000000
vn 1.000000 -0.000000 0.000000
vn 1.000000 -0.000000 0.000000
vn -1.000000 0.000001 0.000000
vn -1.000000 0.000001 0.000000
vn -1.000000 0.000001 0.000000
vn -1.000000 0.000001 0.000000
vn -0.000000 -0.776474 0.630149
vn -0.000000 -0.776474 0.630149
vn -0.000000 -0.776474 0.630149
vn -0.000000 -0.776474 0.630149
vn 0.270541 0.606651 0.747518
vn 0.270541 0.606651 0.747518
vn 0.270541 0.606651 0.747518
vn 0.270541 0.606651 0.747518
vn 0.000000 0.776473 -0.630151
vn -0.000000 0.776473 -0.630151
vn -0.000000 0.776473 -0.630151
vn 0.000000 0.776473 -0.630151
vn -0.270541 -0.606651 -0.747518
vn -0.318048 -0.597429 -0.736154
vn -0.318048 -0.597429 -0.736154
vn -0.270541 -0.606651 -0.747518
vn -0.962709 0.170481 0.210067
vn -0.962709 0.170481 0.210067
vn -0.962709 0.170481 0.210067
vn -0.962709 0.170481 0.210067
vn 0.000000 -0.776475 0.630149
vn 0.000000 -0.776475 0.630149
vn 0.000000 -0.776475 0.630149
vn 0.000000 -0.776475 0.630149
vn -0.270541 0.606651 0.747518
vn -0.270541 0.606651 0.747518
vn -0.270541 0.606651 0.747518
vn -0.270541 0.606651 0.747518
vn -0.000000 0.776472 -0.630151
vn -0.000000 0.776472 -0.630151
vn 0.000000 0.776472 -0.630151
vn 0.000000 0.776472 -0.630151
vn 0.270541 -0.606651 -0.747517
vn 0.270541 -0.606651 -0.747517
vn 0.310554 -0.598993 -0.738081
vn 0.310554 -0.598993 -0.738081
vn 0.962705 0.170490 0.210078
vn 0.962705 0.170490 0.210078
vn 0.962705 0.170490 0.210078
vn 0.962705 0.170490 0.210078
vn -0.000000 -0.776474 0.630149
vn 0.000000 -0.776474 0.630149
vn 0.000000 -0.776474 0.630149
vn -0.000000 -0.776474 0.630149
vn 0.000000 0.630150 0.776473
vn 0.000000 0.630150 0.776473
vn 0.000000 0.630150 0.776473
vn 0.000000 0.630150 0.776473
vn -0.000002 0.776473 -0.630151
vn 0.000001 0.776473 -0.630151
vn 0.000001 0.776473 -0.630151
vn -0.000001 0.776473 -0.630151
vn 0.000000 -0.630150 -0.776473
vn 0.000000 -0.630150 -0.776473
vn 0.000000 -0.630150 -0.776473
vn 0.000000 -0.630150 -0.776473
vn 0.904378 0.268906 0.331347
vn 0.904378 0.268906 0.331347
vn 0.904378 0.268906 0.331347
vn 0.904378 0.268906 0.331347
vn -0.665362 -0.470421 -0.579653
vn -0.665362 -0.470421 -0.579653
vn 0.565314 -0.519795 -0.640494
vn 0.565314 -0.519795 -0.640494
vn -0.823330 0.357649 0.440698
vn -0.823330 0.357649 0.440698
vn -0.823330 0.357649 0.440698
vn -0.823330 0.357649 0.440698
vn -0.272187 -0.606358 -0.747157
vn -0.371739 -0.584992 -0.720829
vn -0.371739 -0.584992 -0.720829
vn -0.272187 -0.606358 -0.747157
vn -0.000000 -0.776473 0.630151
vn 0.000000 -0.776473 0.630150
vn 0.000000 -0.776473 0.630151
vn -0.000000 -0.776473 0.630151
vn 0.134332 0.624439 0.769436
vn 0.250336 0.610085 0.751750
vn 0.250336 0.610085 0.751750
vn 0.134332 0.624439 0.769436
vn -0.000000 0.776474 -0.630150
vn -0.000000 0.776474 -0.630150
vn 0.000000 0.776474 -0.630150
vn -0.000000 0.776474 -0.630150
vn -0.838938 0.342945 0.422578
vn -0.838938 0.342945 0.422578
vn -0.838938 0.342945 0.422578
vn -0.838938 0.342945 0.422578
vn 0.271526 -0.606476 -0.747302
vn 0.271526 -0.606476 -0.747302
vn 0.361504 -0.587533 -0.723961
vn 0.361504 -0.587533 -0.723961
vn 0.000000 -0.776474 0.630149
vn 0.000000 -0.776474 0.630149
vn 0.000000 -0.776474 0.630149
vn 0.000000 -0.776474 0.630149
vn -0.138256 0.624099 0.769017
vn -0.138256 0.624099 0.769017
vn -0.258230 0.608778 0.750138
vn -0.258230 0.608778 0.750138
vn 0.000000 0.776473 -0.630150
vn 0.000000 0.776473 -0.630150
vn 0.000001 0.776473 -0.630150
vn 0.000000 0.776473 -0.630150
vn 0.535883 0.532030 0.655570
vn 0.535883 0.532030 0.655570
vn 0.535883 0.532030 0.655570
vn 0.535883 0.532030 0.655570
vn 0.789404 0.386833 0.476657
vn 0.789404 0.386833 0.476657
vn -0.492980 -0.548256 -0.675564
vn -0.492980 -0.548256 -0.675564
vn 0.000001 -0.776473 0.630150
vn 0.000001 -0.776473 0.630150
vn 0.000001 0.776473 -0.630150
vn 0.000000 0.776473 -0.630150
vn -0.000000 0.776474 -0.630149
vn -0.000000 0.776474 -0.630149
vn -0.004121 -0.630145 -0.776467
vn -0.004121 -0.630145 -0.776467
vn 0.000000 -0.776473 0.630150
vn 0.000000 -0.776473 0.630150
vn 0.012595 0.630100 0.776412
vn 0.012594 0.630100 0.776412
vn -0.795085 0.382185 0.470929
vn -0.795085 0.382185 0.470929
vn 0.000001 0.776474 -0.630150
vn 0.000001 0.776473 -0.630150
vn 0.484130 -0.551379 -0.679411
vn 0.484130 -0.551379 -0.679411
vn 0.000001 -0.776474 0.630150
vn 0.000001 -0.776473 0.630150
vn 0.000000 0.000000 1.000000
vn 0.000000 0.000000 1.000000
vn 0.000000 0.000000 1.000000
vn 0.000000 0.000000 1.000000
vn 0.000000 1.000000 -0.000000
vn 0.000000 1.000000 -0.000000
vn 0.000000 1.000000 -0.000000
vn 0.000000 1.000000 -0.000000
vn 0.000000 0.000000 -1.000000
vn 0.000000 0.000000 -1.000000
vn 0.000000 0.000000 -1.000000
vn 0.000000 0.000000 -1.000000
vn 0.000000 -1.000000 0.000000
vn 0.000000 -1.000000 0.000000
vn 0.000000 -1.000000 0.000000
vn 0.000000 -1.000000 0.000000
vn 1.000000 -0.000004 -0.000000
vn 1.000000 -0.000004 -0.000000
vn 1.000000 -0.000004 -0.000000
vn 1.000000 -0.000004 -0.000000
vn -1.000000 0.000004 0.000000
vn -1.000000 0.000004 0.000000
vn -1.000000 0.000004 0.000000
vn -1.000000 0.000004 0.000000
vn 0.000000 0.000000 1.000000
vn 0.000000 0.000000 1.000000
vn 0.000000 0.000000 1.000000
vn 0.000000 0.000000 1.000000
vn 0.000000 1.000000 -0.000000
vn 0.000000 1.000000 -0.000000
vn 0.000000 1.000000 -0.000000
vn 0.000000 1.000000 -0.000000
vn 0.000000 0.000000 -1.000000
vn 0.000000 0.000000 -1.000000
vn 0.000000 0.000000 -1.000000
vn 0.000000 0.000000 -1.000000
vn 0.000000 -1.000000 0.000000
vn 0.000000 -1.000000 0.000000
vn 0.000000 -1.000000 0.000000
vn 0.000000 -1.000000 0.000000
vn 1.000000 -0.000000 -0.000001
vn 1.000000 -0.000000 -0.000001
vn 1.000000 -0.000000 -0.000001
vn 1.000000 -0.000000 -0.000001
vn -1.000000 0.000000 0.000001
vn -1.000000 0.000000 0.000001
vn -1.000000 0.000000 0.000001
vn -1.000000 0.000000 0.000001
vn 0.000000 -1.000000 0.000000
vn 0.000000 -1.000000 0.000000
vn 0.000000 -1.000000 0.000000
vn 0.000000 -1.000000 0.000000
vn 0.000000 0.000000 1.000000
vn 0.000000 0.000000 1.000000
vn 0.000000 0.000000 1.000000
vn 0.000000 0.000000 1.000000
vn 0.000000 1.000000 0.000000
vn 0.000000 1.000000 0.000000
vn 0.000000 1.000000 0.000000
vn 0.000000 1.000000 0.000000
vn 0.000000 0.000000 -1.000000
vn 0.000000 0.000000 -1.000000
vn 0.000000 0.000000 -1.000000
vn 0.000000 0.000000 -1.000000
vn -1.000000 0.000000 0.000000
vn -1.000000 0.000000 0.000000
vn -1.000000 0.000000 0.000000
vn -1.000000 0.000000 0.000000
vn 1.000000 0.000000 0.000000
vn 1.000000 0.000000 0.000000
vn 1.000000 0.000000 0.000000
vn 1.000000 0.000000 0.000000
vn 0.000000 -1.000000 0.000000
vn 0.000000 -1.000000 0.000000
vn 0.000000 -1.000000 0.000000
vn 0.000000 -1.000000 0.000000
vn 0.000000 0.000000 -1.000000
vn 0.000000 0.000000 -1.000000
vn 0.000000 0.000000 -1.000000
vn 0.000000 0.000000 -1.000000
vn 0.000000 1.000000 0.000000
vn 0.000000 1.000000 0.000000
vn 0.000000 1.000000 0.000000
vn 0.000000 1.000000 0.000000
vn 0.000000 0.000000 1.000000
vn 0.000000 0.000000 1.000000
vn 0.000000 0.000000 1.000000
vn 0.000000 0.000000 1.000000
vn -1.000000 0.000000 0.000000
vn -1.000000 0.000000 0.000000
vn -1.000000 0.000000 0.000000
vn -1.000000 0.000000 0.000000
vn 1.000000 0.000000 0.000000
vn 1.000000 0.000000 0.000000
vn 1.000000 0.000000 0.000000
vn 1.000000 0.000000 0.000000
vn 0.000000 -1.000000 0.000000
vn 0.000000 -1.000000 0.000000
vn 0.000000 -1.000000 0.000000
vn 0.000000 -1.000000 0.000000
vn 0.000000 0.000000 -1.000000
vn 0.000000 0.000000 -1.000000
vn 0.000000 0.000000 -1.000000
vn 0.000000 0.000000 -1.000000
vn 0.000000 1.000000 0.000000
vn 0.000000 1.000000 0.000000
vn 0.000000 1.000000 0.000000
vn 0.000000 1.000000 0.000000
vn 0.000000 0.000000 1.000000
vn 0.000000 0.000000 1.000000
vn 0.000000 0.000000 1.000000
vn 0.000000 0.000000 1.000000
vn 1.000000 0.000000 0.000000
vn 1.000000 0.000000 0.000000
vn 1.000000 0.000000 0.000000
vn 1.000000 0.000000 0.000000
vn -1.000000 0.000000 0.000000
vn -1.000000 0.000000 0.000000
vn -1.000000 0.000000 0.000000
vn -1.000000 0.000000 0.000000
s 1
g polySurface103
usemtl initialShadingGroup
f 1/1/1 2/2/2 22/3/3 21/4/4
f 2/2/2 3/5/5 23/6/6 22/3/3
f 3/5/5 4/7/7 24/8/8 23/6/6
f 4/7/7 5/9/9 25/10/10 24/8/8
f 5/9/9 6/11/11 26/12/12 25/10/10
f 6/11/11 7/13/13 27/14/14 26/12/12
f 7/13/13 8/15/15 28/16/16 27/14/14
f 8/15/15 9/17/17 29/18/18 28/16/16
f 9/17/17 10/19/19 30/20/20 29/18/18
f 10/19/19 11/21/21 31/22/22 30/20/20
f 11/21/21 12/23/23 32/24/24 31/22/22
f 12/23/23 13/25/25 33/26/26 32/24/24
f 13/25/25 14/27/27 34/28/28 33/26/26
f 14/27/27 15/29/29 35/30/30 34/28/28
f 15/29/29 16/31/31 36/32/32 35/30/30
f 16/31/31 17/33/33 37/34/34 36/32/32
f 17/33/33 18/35/35 38/36/36 37/34/34
f 18/35/35 19/37/37 39/38/38 38/36/36
f 19/37/37 20/39/39 40/40/40 39/38/38
f 20/39/39 1/1/1 21/4/4 40/40/40
s 2
f 21/41/41 22/42/42 42/43/43 41/44/44
f 22/45/42 23/46/45 43/47/46 42/48/43
f 23/46/45 24/49/47 44/50/48 43/47/46
f 24/49/47 25/51/49 45/52/50 44/50/48
f 25/51/49 26/53/51 46/54/52 45/52/50
f 26/53/51 27/55/53 47/56/54 46/54/52
f 27/55/53 28/57/55 48/58/56 47/56/54
f 28/59/55 29/60/57 49/61/58 48/62/56
f 29/60/57 30/63/59 50/64/60 49/61/58
f 30/63/59 31/65/61 51/66/62 50/64/60
f 31/65/61 32/67/63 52/68/64 51/66/62
f 32/69/63 33/70/65 53/71/66 52/72/64
f 33/70/65 34/73/67 54/74/68 53/71/66
f 34/73/67 35/75/69 55/76/70 54/74/68
f 35/77/69 36/78/71 56/79/72 55/80/70
f 36/78/71 37/81/73 57/82/74 56/79/72
f 37/81/73 38/83/75 58/84/76 57/82/74
f 38/85/75 39/86/77 59/87/78 58/88/76
f 39/86/77 40/89/79 60/90/80 59/87/78
f 40/89/79 21/41/41 41/44/44 60/90/80
s 3
f 41/91/81 42/92/82 62/93/83 61/94/84
f 42/92/82 43/95/85 63/96/86 62/93/83
f 43/95/85 44/97/87 64/98/88 63/96/86
f 44/97/87 45/99/89 65/100/90 64/98/88
f 45/99/89 46/101/91 66/102/92 65/100/90
f 46/101/91 47/103/93 67/104/94 66/102/92
f 47/103/93 48/105/95 68/106/96 67/104/94
f 48/105/95 49/107/97 69/108/98 68/106/96
f 49/107/97 50/109/99 70/110/100 69/108/98
f 50/109/99 51/111/101 71/112/102 70/110/100
f 51/111/101 52/113/103 72/114/104 71/112/102
f 52/113/103 53/115/105 73/116/106 72/114/104
f 53/115/105 54/117/107 74/118/108 73/116/106
f 54/117/107 55/119/109 75/120/110 74/118/108
f 55/119/109 56/121/111 76/122/112 75/120/110
f 56/121/111 57/123/113 77/124/114 76/122/112
f 57/123/113 58/125/115 78/126/116 77/124/114
f 58/125/115 59/127/117 79/128/118 78/126/116
f 59/127/117 60/129/119 80/130/120 79/128/118
f 60/129/119 41/91/81 61/94/84 80/130/120
s off
f 7/131/121 6/132/122 66/133/123 67/134/124
f 8/135/125 7/131/126 67/134/127 68/136/128
f 9/137/129 8/138/130 68/139/131 69/140/132
f 10/141/133 9/137/134 69/140/135 70/142/136
f 11/143/137 10/141/138 70/142/139 71/144/140
f 12/145/141 11/143/142 71/144/143 72/146/144
s 4
f 14/147/145 13/148/146 73/149/147 74/150/148
f 13/148/146 12/151/149 72/152/150 73/149/147
s 5
f 18/153/151 17/154/152 77/155/153 78/156/154
f 17/154/152 16/157/155 76/158/156 77/155/153
f 16/157/155 15/159/157 75/160/158 76/158/156
f 15/161/157 14/147/159 74/150/160 75/162/158
s 6
f 2/163/161 1/164/162 61/165/163 62/166/164
f 1/164/162 20/167/165 80/168/166 61/165/163
f 20/167/165 19/169/167 79/170/168 80/168/166
f 19/169/167 18/171/169 78/172/170 79/170/168
s 7
f 6/132/171 5/173/172 65/174/173 66/133/174
f 5/173/172 4/175/175 64/176/176 65/174/173
f 4/175/175 3/177/177 63/178/178 64/176/176
f 3/177/177 2/179/179 62/180/180 63/178/178
s off
f 81/181/181 82/182/182 84/183/183 83/184/184
f 83/184/185 84/183/186 86/185/187 85/186/188
f 85/187/189 86/188/190 88/189/191 87/190/192
f 87/191/193 88/192/194 82/193/195 81/194/196
f 82/195/197 88/196/198 86/185/199 84/183/200
f 87/197/201 81/198/202 83/184/203 85/186/204
f 89/199/205 90/200/206 92/201/207 91/202/208
f 91/203/209 92/204/210 94/205/211 93/206/212
f 93/207/213 94/208/214 96/209/215 95/210/216
f 95/211/217 96/212/218 90/213/219 89/214/220
f 90/215/221 96/216/222 94/217/223 92/218/224
f 95/219/225 89/220/226 91/221/227 93/222/228
f 97/223/229 98/224/230 100/225/231 99/226/232
f 99/227/233 100/228/234 102/229/235 101/230/236
f 101/231/237 102/232/238 104/233/239 103/234/240
f 103/235/241 104/236/242 98/237/243 97/238/244
f 98/239/245 104/240/246 102/241/247 100/242/248
f 103/243/249 97/244/250 99/245/251 101/246/252
f 105/247/253 106/248/254 108/249/255 107/250/256
f 107/250/257 108/249/258 110/251/259 109/252/260
f 109/253/261 110/254/262 112/255/263 111/256/264
f 111/257/265 112/258/266 106/259/267 105/260/268
f 106/261/269 112/262/270 110/263/271 108/264/272
f 111/265/273 105/266/274 107/267/275 109/268/276
s 8
f 113/269/277 114/270/278 116/271/279 115/272/280
s off
f 115/273/281 116/274/282 118/275/283 117/276/284
s 9
f 117/277/285 118/278/286 120/279/287 119/280/288
s 10
f 119/281/289 120/282/290 114/283/291 113/284/292
s off
f 119/285/293 113/286/294 115/287/295 117/288/296
s 8
f 121/289/297 124/290/298 123/291/299 122/292/300
s off
f 124/293/301 126/294/302 125/295/303 123/296/304
s 9
f 126/297/305 128/298/306 127/299/307 125/300/308
s 13
f 128/301/309 121/302/310 122/303/311 127/304/312
s off
f 128/305/313 126/306/314 124/307/315 121/308/316
s 8
f 129/309/317 130/310/318 132/311/319 131/312/320
s off
f 131/313/321 132/314/322 134/315/323 133/316/324
s 9
f 133/317/325 134/318/326 136/319/327 135/320/328
s off
f 135/321/329 136/322/330 130/323/331 129/324/332
f 118/278/333 116/271/334 131/312/335 133/317/336
s 10
f 114/283/291 120/282/290 135/321/337 129/324/338
s 8
f 116/271/279 114/270/278 129/309/317 131/312/320
s 9
f 120/279/287 118/278/286 133/317/325 135/320/328
f 125/300/308 127/299/307 136/319/327 134/318/326
s 13
f 127/304/312 122/303/311 130/323/339 136/322/340
s off
f 123/296/341 125/295/342 134/315/343 132/314/344
s 8
f 122/292/300 123/291/299 132/311/319 130/310/318
s 14
f 137/325/345 138/326/346 140/327/347 139/328/348
s 15
f 139/329/349 140/330/350 142/331/351 141/332/352
s 16
f 141/332/353 142/331/354 144/333/355 143/334/356
s 17
f 143/335/357 144/336/358 138/337/359 137/338/360
s off
f 143/339/361 137/340/362 139/341/363 141/342/364
s 14
f 145/343/365 148/344/366 147/345/367 146/346/368
s 15
f 148/347/369 150/348/370 149/349/371 147/350/372
s 16
f 150/348/373 152/351/374 151/352/375 149/349/376
s 17
f 152/353/377 145/354/378 146/355/379 151/356/380
s off
f 152/357/381 150/358/382 148/359/383 145/360/384
s 16
f 144/333/355 142/331/354 156/361/385 153/362/386
s 14
f 140/327/347 138/326/346 154/363/387 155/364/388
s 15
f 142/331/351 140/330/350 155/365/389 156/361/390
s 17
f 138/337/359 144/336/358 153/366/391 154/367/392
f 154/367/392 153/366/391 162/368/393 163/369/394
s 14
f 155/364/388 154/363/387 163/370/395 164/371/396
s 15
f 156/361/390 155/365/389 164/372/397 161/373/398
s 16
f 153/362/386 156/361/385 161/373/399 162/374/400
f 158/375/401 157/376/402 149/349/376 151/352/375
s 17
f 159/377/403 158/378/404 151/356/380 146/355/379
s 14
f 160/379/405 159/380/406 146/346/368 147/345/367
s 15
f 157/376/407 160/381/408 147/350/372 149/349/371
s 16
f 162/374/400 161/373/399 157/376/402 158/375/401
s 17
f 163/369/394 162/368/393 158/378/404 159/377/403
s 14
f 164/371/396 163/370/395 159/380/406 160/379/405
s 15
f 161/373/398 164/372/397 160/381/408 157/376/407
s off
f 165/382/409 166/383/410 168/384/411 167/385/412
f 167/386/413 168/387/414 170/388/415 169/389/416
f 169/390/417 170/391/418 172/392/419 171/393/420
f 171/394/421 172/395/422 166/396/423 165/397/424
f 166/398/425 172/399/426 170/400/427 168/401/428
f 171/402/429 165/403/430 167/404/431 169/405/432
f 173/406/433 174/407/434 176/408/435 175/409/436
f 175/410/437 176/411/438 178/412/439 177/413/440
f 177/414/441 178/415/442 180/416/443 179/417/444
f 179/418/445 180/419/446 174/420/447 173/421/448
f 174/422/449 180/423/450 178/424/451 176/425/452
f 179/426/453 173/427/454 175/428/455 177/429/456
f 181/430/457 184/431/458 183/432/459 182/433/460
f 184/431/461 186/434/462 185/435/463 183/432/464
f 186/436/465 188/437/466 187/438/467 185/439/468
f 188/440/469 181/441/470 182/442/471 187/443/472
f 182/444/473 183/432/474 185/435/475 187/445/476
f 188/446/477 186/434/478 184/431/479 181/447/480
f 189/448/481 192/449/482 191/450/483 190/451/484
f 190/451/485 191/450/486 194/452/487 193/453/488
f 193/454/489 194/455/490 196/456/491 195/457/492
f 195/458/493 196/459/494 192/460/495 189/461/496
f 192/462/497 196/463/498 194/452/499 191/450/500
f 195/464/501 189/465/502 190/451/503 193/453/504
f 197/466/505 200/467/506 199/468/507 198/469/508
f 200/467/509 202/470/510 201/471/511 199/468/512
f 202/472/513 204/473/514 203/474/515 201/475/516
f 204/476/517 197/477/518 198/478/519 203/479/520
f 198/480/521 199/468/522 201/471/523 203/481/524
f 204/482/525 202/470/526 200/467/527 197/483/528
